<?xml version="1.0" encoding="utf-8"?>
<svg xmlns="http://www.w3.org/2000/svg" xmlns:xlink="http://www.w3.org/1999/xlink" style="margin: auto; background: none; display: block; shape-rendering: auto;" width="200px" height="200px" viewBox="0 0 100 100" preserveAspectRatio="xMidYMid">
<circle cx="50" cy="50" r="5.94511" fill="none" stroke="#e4590c" stroke-width="2">
  <animate attributeName="r" repeatCount="indefinite" dur="1s" values="0;40" keyTimes="0;1" keySplines="0 0.2 0.8 1" calcMode="spline" begin="-0.5s"></animate>
  <animate attributeName="opacity" repeatCount="indefinite" dur="1s" values="1;0" keyTimes="0;1" keySplines="0.2 0 0.8 1" calcMode="spline" begin="-0.5s"></animate>
</circle>
<circle cx="50" cy="50" r="28.2907" fill="none" stroke="#468af0" stroke-width="2">
  <animate attributeName="r" repeatCount="indefinite" dur="1s" values="0;40" keyTimes="0;1" keySplines="0 0.2 0.8 1" calcMode="spline"></animate>
  <animate attributeName="opacity" repeatCount="indefinite" dur="1s" values="1;0" keyTimes="0;1" keySplines="0.2 0 0.8 1" calcMode="spline"></animate>
</circle>
<!-- [ldio] generated by https://loading.io/ --></svg>